{"response": {"status": "ok", "userTier": "developer", "total": 12, "startIndex": 1, "pageSize": 10, "currentPage": 1, "pages": 2, "orderBy": "relevance", "results": [{"id": "news/2020/sep/25/weatherwatch-did-marco-set-the-scene-for-hurricane-sally", "type": "article", "sectionId": "news", "sectionName": "News", "webPublicationDate": "2020-09-25T20:30:03Z", "webTitle": "Weatherwatch: did Marco set the scene for Hurricane Sally?", "webUrl": "https://www.theguardian.com/news/2020/sep/25/weatherwatch-did-marco-set-the-scene-for-hurricane-sally", "apiUrl": "https://content.guardianapis.com/news/2020/sep/25/weatherwatch-did-marco-set-the-scene-for-hurricane-sally", "fields": {"headline": "Weatherwatch: did Marco set the scene for Hurricane Sally?", "byline": "Kate Ravilious", "shortUrl": "https://www.theguardian.com/p/epbze"}, "isHosted": false, "pillarId": "pillar/news", "pillarName": "News"}, {"id": "news/2020/nov/16/weatherwatch-seabed-holds-clues-to-understanding-hurricanes", "type": "article", "sectionId": "news", "sectionName": "News", "webPublicationDate": "2020-11-16T21:30:16Z", "webTitle": "Weatherwatch: seabed holds clues to understanding hurricanes", "webUrl": "https://www.theguardian.com/news/2020/nov/16/weatherwatch-seabed-holds-clues-to-understanding-hurricanes", "apiUrl": "https://content.guardianapis.com/news/2020/nov/16/weatherwatch-seabed-holds-clues-to-understanding-hurricanes", "fields": {"headline": "Weatherwatch: seabed holds clues to understanding hurricanes", "byline": "David Hambling", "shortUrl": "https://www.theguardian.com/p/fe5fj"}, "isHosted": false, "pillarId": "pillar/news", "pillarName": "News"}, {"id": "news/2020/nov/06/us-midwest-storms-in-august-were-costliest-in-countrys-history", "type": "article", "sectionId": "news", "sectionName": "News", "webPublicationDate": "2020-11-06T21:30:52Z", "webTitle": "US midwest storms in August were costliest in country\u2019s history", "webUrl": "https://www.theguardian.com/news/2020/nov/06/us-midwest-storms-in-august-were-costliest-in-countrys-history", "apiUrl": "https://content.guardianapis.com/news/2020/nov/06/us-midwest-storms-in-august-were-costliest-in-countrys-history", "fields": {"headline": "US midwest storms in August were costliest in country\u2019s history", "byline": "David Hambling", "shortUrl": "https://www.theguardian.com/p/fbbx4"}, "isHosted": false, "pillarId": "pillar/news", "pillarName": "News"}, {"id": "news/2020/aug/26/why-storms-marco-and-laura-spell-double-trouble-in-hurricane-season", "type": "article", "sectionId": "news", "sectionName": "News", "webPublicationDate": "2020-08-26T20:30:33Z", "webTitle": "Why storms Marco and Laura spell double trouble in hurricane season", "webUrl": "https://www.theguardian.com/news/2020/aug/26/why-storms-marco-and-laura-spell-double-trouble-in-hurricane-season", "apiUrl": "https://content.guardianapis.com/news/2020/aug/26/why-storms-marco-and-laura-spell-double-trouble-in-hurricane-season", "fields": {"headline": "Why storms Marco and Laura spell double trouble in hurricane season", "byline": "Kate Ravilious", "shortUrl": "https://www.theguardian.com/p/ek58h"}, "isHosted": false, "pillarId": "pillar/news", "pillarName": "News"}, {"id": "news/2020/jan/31/weatherwatch-how-repeated-flooding-can-shift-levees", "type": "article", "sectionId": "news", "sectionName": "News", "webPublicationDate": "2020-01-31T21:30:00Z", "webTitle": "Weatherwatch: how repeated flooding can shift levees", "webUrl": "https://www.theguardian.com/news/2020/jan/31/weatherwatch-how-repeated-flooding-can-shift-levees", "apiUrl": "https://content.guardianapis.com/news/2020/jan/31/weatherwatch-how-repeated-flooding-can-shift-levees", "fields": {"headline": "Weatherwatch: how repeated flooding can shift levees", "byline": "David Hambling", "shortUrl": "https://www.theguardian.com/p/d755m"}, "isHosted": false, "pillarId": "pillar/news", "pillarName": "News"}, {"id": "news/2019/dec/19/weatherwatch-storms-hit-france-and-iceland-as-australia-overheats", "type": "article", "sectionId": "news", "sectionName": "News", "webPublicationDate": "2019-12-19T11:33:52Z", "webTitle": "Weatherwatch: storms hit France and Iceland as Australia overheats", "webUrl": "https://www.theguardian.com/news/2019/dec/19/weatherwatch-storms-hit-france-and-iceland-as-australia-overheats", "apiUrl": "https://content.guardianapis.com/news/2019/dec/19/weatherwatch-storms-hit-france-and-iceland-as-australia-overheats", "fields": {"headline": "Weatherwatch: storms hit France and Iceland as Australia overheats", "byline": "Daniel Gardner (MetDesk)", "shortUrl": "https://www.theguardian.com/p/dv4dq"}, "isHosted": false, "pillarId": "pillar/news", "pillarName": "News"}, {"id": "news/2019/sep/18/weatherwatch-do-30-year-mortgages-make-sense-as-sea-levels-rise-faster-annually", "type": "article", "sectionId": "news", "sectionName": "News", "webPublicationDate": "2019-09-18T20:30:09Z", "webTitle": "Weatherwatch: do 30-year mortgages make sense as sea levels rise faster annually?", "webUrl": "https://www.theguardian.com/news/2019/sep/18/weatherwatch-do-30-year-mortgages-make-sense-as-sea-levels-rise-faster-annually", "apiUrl": "https://content.guardianapis.com/news/2019/sep/18/weatherwatch-do-30-year-mortgages-make-sense-as-sea-levels-rise-faster-annually", "fields": {"headline": "Weatherwatch: do 30-year mortgages make sense as sea levels rise faster annually?", "byline": "Paul Brown", "shortUrl": "https://www.theguardian.com/p/cakmm"}, "isHosted": false, "pillarId": "pillar/news", "pillarName": "News"}, {"id": "news/2020/oct/21/how-la-nina-will-bring-changes-to-world-weather-patterns", "type": "article", "sectionId": "news", "sectionName": "News", "webPublicationDate": "2020-10-21T20:30:06Z", "webTitle": "How La Ni\u00f1a will bring changes to the world's weather patterns", "webUrl": "https://www.theguardian.com/news/2020/oct/21/how-la-nina-will-bring-changes-to-world-weather-patterns", "apiUrl": "https://content.guardianapis.com/news/2020/oct/21/how-la-nina-will-bring-changes-to-world-weather-patterns", "fields": {"headline": "How La Ni\u00f1a will bring changes to the world's weather patterns", "byline": "Ashley Nelis", "shortUrl": "https://www.theguardian.com/p/f7v5b"}, "isHosted": false, "pillarId": "pillar/news", "pillarName": "News"}, {"id": "news/2019/jul/17/weatherwatch-venice-supercell-storm-endangers-a-cruise-ship-greece-floods-hurricane-barry", "type": "article", "sectionId": "news", "sectionName": "News", "webPublicationDate": "2019-07-17T20:30:05Z", "webTitle": "World weatherwatch: Venice supercell storm endangers cruise ship", "webUrl": "https://www.theguardian.com/news/2019/jul/17/weatherwatch-venice-supercell-storm-endangers-a-cruise-ship-greece-floods-hurricane-barry", "apiUrl": "https://content.guardianapis.com/news/2019/jul/17/weatherwatch-venice-supercell-storm-endangers-a-cruise-ship-greece-floods-hurricane-barry", "fields": {"headline": "World weatherwatch: Venice supercell storm endangers cruise ship", "byline": "Alessio Martini (MetDesk)", "shortUrl": "https://www.theguardian.com/p/bq6ad"}, "isHosted": false, "pillarId": "pillar/news", "pillarName": "News"}, {"id": "news/2019/oct/25/weatherwatch-volunteers-worldwide-aided-rescue-efforts-after-dorian", "type": "article", "sectionId": "news", "sectionName": "News", "webPublicationDate": "2019-10-25T20:30:29Z", "webTitle": "Weatherwatch: volunteers worldwide aided rescue efforts after Dorian", "webUrl": "https://www.theguardian.com/news/2019/oct/25/weatherwatch-volunteers-worldwide-aided-rescue-efforts-after-dorian", "apiUrl": "https://content.guardianapis.com/news/2019/oct/25/weatherwatch-volunteers-worldwide-aided-rescue-efforts-after-dorian", "fields": {"headline": "Weatherwatch: volunteers worldwide aided rescue efforts after Dorian", "byline": "Kate Ravilious", "shortUrl": "https://www.theguardian.com/p/chhdj"}, "isHosted": false, "pillarId": "pillar/news", "pillarName": "News"}]}}